,HARPNUM,NOAA_ARS
0,1,11067
1,2,11064
2,6,11065
3,8,11069
4,10,11066
5,11,11063
6,12,11068
7,14,11070
8,17,11071
9,26,11072
10,38,11073
11,40,11075
12,41,11074
13,43,11076
14,45,11077
15,46,11078
16,49,11079
17,51,11080
18,54,11081
19,57,11082
20,58,11083
21,67,11085
22,71,11084
23,83,11086
24,86,11087
25,89,11088
26,92,11089
27,98,11090
28,104,11092
29,107,11094
30,114,11095
31,115,11093
32,115,11099
33,116,11096
34,128,11097
35,131,11098
36,135,11100
37,145,11101
38,146,11102
39,147,11104
40,155,11103
41,156,11105
42,175,11106
43,182,11107
44,185,11108
45,187,11109
46,190,11110
47,198,11111
48,211,11112
49,218,11113
50,219,11114
51,220,11115
52,221,11116
53,223,11118
54,224,11119
55,226,11117
56,241,11120
57,245,11121
58,245,11123
59,248,11122
60,252,11124
61,252,11125
62,256,11126
63,259,11127
64,270,11128
65,273,11129
66,274,11130
67,279,11131
68,284,11133
69,284,11134
70,285,11132
71,297,11135
72,316,11136
73,317,11137
74,318,11138
75,321,11139
76,323,11140
77,325,11141
78,327,11142
79,335,11143
80,338,11145
81,340,11144
82,342,11146
83,345,11147
84,345,11149
85,347,11148
86,354,11151
87,355,11150
88,361,11152
89,362,11153
90,364,11157
91,366,11155
92,367,11156
93,368,11154
94,371,11159
95,377,11158
96,384,11160
97,384,11161
98,384,11162
99,392,11163
100,393,11164
101,394,11165
102,401,11166
103,403,11167
104,405,11168
105,407,11169
106,414,11170
107,415,11171
108,421,11172
109,421,11175
110,429,11173
111,431,11174
112,436,11179
113,437,11176
114,437,11178
115,438,11177
116,443,11181
117,444,11180
118,451,11183
119,455,11182
120,466,11184
121,480,11185
122,480,11186
123,480,11189
124,488,11188
125,494,11187
126,495,11190
127,495,11192
128,504,11191
129,504,11193
130,507,11194
131,514,11195
132,514,11196
133,514,11197
134,527,11198
135,532,11201
136,536,11202
137,538,11200
138,540,11199
139,556,11203
140,556,11204
141,556,11205
142,572,11206
143,576,11207
144,580,11210
145,587,11208
146,589,11209
147,590,11211
148,595,11212
149,597,11213
150,602,11214
151,602,11217
152,603,11215
153,605,11216
154,610,11218
155,618,11220
156,619,11221
157,622,11219
158,622,11224
159,625,11223
160,631,11222
161,632,11225
162,637,11226
163,637,11227
164,637,11233
165,639,11228
166,639,11230
167,640,11222
168,643,11229
169,650,11232
170,651,11231
171,661,11234
172,662,11235
173,667,11236
174,674,11237
175,674,11240
176,676,11239
177,677,11238
178,681,11241
179,684,11244
180,685,11243
181,686,11242
182,693,11246
183,695,11247
184,700,11245
185,702,11249
186,705,11248
187,705,11253
188,705,11257
189,712,11250
190,713,11258
191,714,11251
192,714,11252
193,714,11255
194,725,11254
195,728,11256
196,740,11259
197,744,11262
198,746,11260
199,748,11265
200,750,11261
201,751,11264
202,753,11263
203,755,11264
204,759,11266
205,764,11267
206,765,11268
207,772,11269
208,781,11270
209,794,11271
210,794,11278
211,798,11272
212,799,11273
213,803,11274
214,803,11276
215,805,11275
216,812,11280
217,814,11277
218,814,11279
219,814,11282
220,814,11286
221,817,11285
222,819,11284
223,824,11281
224,833,11283
225,843,11287
226,846,11288
227,847,11289
228,847,11293
229,850,11290
230,851,11291
231,853,11292
232,854,11294
233,856,11295
234,856,11296
235,856,11298
236,867,11299
237,869,11297
238,875,11300
239,877,11293
240,878,11301
241,892,11302
242,899,11303
243,900,11304
244,902,11305
245,903,11306
246,909,11307
247,913,11308
248,918,11309
249,924,11310
250,926,11311
251,927,11312
252,927,11315
253,932,11313
254,932,11320
255,940,11314
256,940,11319
257,948,11317
258,948,11329
259,950,11316
260,956,11318
261,970,11323
262,970,11328
263,971,11322
264,975,11321
265,976,11324
266,976,11325
267,982,11327
268,990,11326
269,997,11330
270,997,11333
271,1001,11331
272,1005,11332
273,1016,11335
274,1019,11336
275,1019,11337
276,1021,11334
277,1021,11335
278,1026,11338
279,1026,11344
280,1026,11345
281,1028,11339
282,1028,11348
283,1038,11340
284,1041,11341
285,1041,11342
286,1046,11343
287,1064,11349
288,1066,11346
289,1066,11351
290,1075,11347
291,1079,11350
292,1080,11357
293,1089,11352
294,1090,11359
295,1092,11354
296,1093,11353
297,1093,11355
298,1093,11356
299,1093,11360
300,1113,11358
301,1119,11361
302,1120,11362
303,1124,11363
304,1126,11364
305,1126,11365
306,1126,11366
307,1126,11369
308,1126,11371
309,1126,11372
310,1149,11367
311,1164,11368
312,1165,11370
313,1168,11374
314,1170,11373
315,1171,11375
316,1183,11376
317,1183,11377
318,1186,11378
319,1186,11379
320,1209,11380
321,1209,11387
322,1210,11381
323,1210,11382
324,1221,11383
325,1221,11384
326,1232,11385
327,1237,11386
328,1249,11390
329,1256,11388
330,1256,11389
331,1271,11392
332,1275,11393
333,1278,11391
334,1278,11394
335,1295,11394
336,1300,11395
337,1303,11398
338,1309,11396
339,1312,11397
340,1313,11403
341,1318,11399
342,1319,11400
343,1321,11401
344,1321,11402
345,1321,11405
346,1321,11407
347,1327,11404
348,1330,11406
349,1338,11408
350,1339,11412
351,1340,11409
352,1348,11411
353,1350,11410
354,1350,11413
355,1367,11415
356,1381,11414
357,1389,11416
358,1390,11418
359,1391,11417
360,1396,11419
361,1399,11420
362,1405,11422
363,1410,11421
364,1422,11423
365,1424,11425
366,1425,11424
367,1425,11427
368,1426,11426
369,1447,11428
370,1449,11429
371,1449,11430
372,1455,11431
373,1461,11432
374,1464,11434
375,1465,11433
376,1471,11435
377,1478,11436
378,1480,11437
379,1483,11439
380,1484,11440
381,1488,11438
382,1492,11442
383,1492,11443
384,1492,11444
385,1493,11441
386,1495,11447
387,1497,11446
388,1500,11445
389,1514,11448
390,1514,11453
391,1520,11449
392,1527,11451
393,1527,11452
394,1528,11450
395,1535,11442
396,1549,11455
397,1557,11454
398,1558,11463
399,1564,11456
400,1569,11457
401,1572,11458
402,1573,11462
403,1574,11459
404,1578,11460
405,1582,11461
406,1593,11457
407,1594,11464
408,1596,11465
409,1603,11466
410,1603,11468
411,1611,11469
412,1611,11473
413,1613,11467
414,1621,11470
415,1621,11471
416,1628,11472
417,1632,11474
418,1633,11468
419,1634,11475
420,1638,11476
421,1644,11477
422,1644,11478
423,1651,11480
424,1653,11479
425,1653,11482
426,1657,11481
427,1658,11483
428,1662,11484
429,1669,11485
430,1677,11486
431,1677,11491
432,1680,11487
433,1688,11488
434,1690,11489
435,1701,11490
436,1705,11492
437,1715,11495
438,1722,11493
439,1722,11496
440,1722,11498
441,1722,11499
442,1722,11501
443,1724,11494
444,1727,11497
445,1735,11502
446,1737,11500
447,1737,11503
448,1744,11507
449,1744,11508
450,1744,11509
451,1750,11504
452,1750,11505
453,1756,11506
454,1783,11510
455,1789,11511
456,1795,11512
457,1806,11513
458,1806,11516
459,1806,11517
460,1807,11514
461,1807,11515
462,1832,11518
463,1834,11519
464,1834,11520
465,1834,11521
466,1845,11522
467,1863,11523
468,1866,11524
469,1866,11525
470,1873,11526
471,1877,11527
472,1877,11528
473,1879,11529
474,1879,11530
475,1879,11532
476,1879,11533
477,1879,11536
478,1886,11531
479,1892,11533
480,1893,11534
481,1903,11535
482,1907,11538
483,1907,11539
484,1907,11540
485,1907,11541
486,1907,11544
487,1908,11537
488,1930,11542
489,1931,11543
490,1939,11545
491,1942,11546
492,1943,11547
493,1946,11548
494,1948,11549
495,1949,11550
496,1951,11552
497,1952,11551
498,1959,11553
499,1962,11554
500,1970,11555
501,1978,11556
502,1979,11558
503,1979,11559
504,1990,11562
505,1993,11560
506,1996,11563
507,1997,11561
508,1999,11563
509,1999,11564
510,2007,11565
511,2011,11566
512,2017,11568
513,2021,11567
514,2026,11569
515,2028,11571
516,2029,11570
517,2036,11572
518,2037,11573
519,2039,11574
520,2040,11575
521,2040,11577
522,2040,11583
523,2044,11576
524,2047,11578
525,2047,11581
526,2059,11579
527,2061,11580
528,2069,11582
529,2069,11584
530,2098,11585
531,2106,11588
532,2107,11586
533,2109,11589
534,2110,11587
535,2112,11590
536,2113,11595
537,2114,11592
538,2117,11593
539,2121,11591
540,2123,11594
541,2130,11596
542,2131,11597
543,2137,11598
544,2143,11599
545,2144,11600
546,2155,11594
547,2158,11601
548,2166,11602
549,2169,11603
550,2171,11605
551,2173,11604
552,2176,11606
553,2177,11608
554,2178,11607
555,2181,11609
556,2181,11610
557,2186,11611
558,2186,11612
559,2191,11613
560,2191,11617
561,2193,11614
562,2193,11615
563,2203,11616
564,2203,11619
565,2220,11618
566,2227,11620
567,2239,11622
568,2240,11621
569,2245,11623
570,2245,11625
571,2249,11624
572,2259,11626
573,2260,11627
574,2262,11628
575,2262,11629
576,2270,11630
577,2291,11631
578,2291,11632
579,2306,11633
580,2306,11634
581,2314,11635
582,2322,11636
583,2322,11637
584,2329,11639
585,2331,11638
586,2337,11640
587,2338,11641
588,2341,11642
589,2342,11643
590,2344,11644
591,2344,11646
592,2348,11651
593,2351,11647
594,2352,11648
595,2353,11645
596,2358,11649
597,2360,11650
598,2360,11655
599,2362,11652
600,2366,11653
601,2371,11657
602,2372,11654
603,2380,11656
604,2387,11658
605,2400,11660
606,2401,11659
607,2411,11661
608,2414,11662
609,2420,11663
610,2425,11664
611,2432,11666
612,2433,11665
613,2436,11668
614,2439,11667
615,2450,11669
616,2460,11670
617,2469,11671
618,2469,11674
619,2469,11678
620,2471,11672
621,2489,11673
622,2491,11675
623,2492,11676
624,2492,11679
625,2493,11677
626,2501,11682
627,2502,11681
628,2502,11684
629,2504,11680
630,2511,11683
631,2511,11685
632,2511,11688
633,2519,11686
634,2520,11687
635,2522,11689
636,2525,11693
637,2533,11690
638,2541,11691
639,2543,11698
640,2546,11692
641,2546,11701
642,2546,11694
643,2557,11695
644,2560,11696
645,2569,11697
646,2571,11700
647,2573,11699
648,2581,11702
649,2583,11703
650,2585,11705
651,2587,11704
652,2594,11709
653,2595,11706
654,2597,11713
655,2597,11708
656,2598,11707
657,2599,11710
658,2605,11711
659,2610,11712
660,2619,11714
661,2619,11720
662,2625,11716
663,2626,11715
664,2634,11717
665,2635,11719
666,2636,11718
667,2651,11721
668,2651,11722
669,2661,11724
670,2663,11723
671,2669,11725
672,2672,11727
673,2673,11726
674,2677,11733
675,2677,11735
676,2683,11729
677,2685,11728
678,2691,11730
679,2693,11731
680,2696,11732
681,2696,11734
682,2710,11736
683,2711,11737
684,2716,11738
685,2716,11739
686,2718,11740
687,2727,11741
688,2732,11736
689,2733,11742
690,2733,11743
691,2735,11744
692,2737,11746
693,2737,11747
694,2737,11751
695,2739,11745
696,2748,11748
697,2749,11749
698,2750,11750
699,2754,11752
700,2758,11754
701,2758,11756
702,2760,11753
703,2760,11755
704,2779,11757
705,2790,11758
706,2790,11759
707,2790,11762
708,2790,11763
709,2808,11761
710,2809,11760
711,2812,11766
712,2822,11764
713,2825,11765
714,2832,11768
715,2839,11767
716,2852,11769
717,2852,11770
718,2852,11771
719,2852,11772
720,2852,11774
721,2852,11775
722,2861,11773
723,2875,11776
724,2878,11777
725,2887,11778
726,2898,11779
727,2904,11780
728,2910,11782
729,2912,11781
730,2920,11785
731,2920,11787
732,2920,11788
733,2922,11784
734,2923,11786
735,2942,11789
736,2944,11790
737,2945,11794
738,2952,11791
739,2954,11792
740,2964,11795
741,2966,11797
742,2966,11804
743,2968,11793
744,2976,11796
745,2981,11799
746,2981,11800
747,2981,11803
748,2981,11805
749,2982,11798
750,2984,11799
751,2999,11801
752,3001,11802
753,3011,11812
754,3012,11806
755,3019,11807
756,3022,11808
757,3028,11809
758,3031,11810
759,3032,11811
760,3032,11815
761,3048,11814
762,3048,11816
763,3048,11817
764,3048,11819
765,3049,11813
766,3056,11818
767,3066,11820
768,3066,11822
769,3066,11830
770,3068,11825
771,3079,11821
772,3082,11823
773,3097,11824
774,3098,11827
775,3102,11826
776,3103,11828
777,3108,11826
778,3113,11829
779,3114,11832
780,3115,11831
781,3116,11833
782,3119,11834
783,3122,11835
784,3129,11836
785,3149,11837
786,3154,11838
787,3154,11840
788,3171,11839
789,3176,11841
790,3179,11842
791,3188,11853
792,3190,11844
793,3192,11847
794,3194,11845
795,3194,11846
796,3194,11848
797,3195,11843
798,3199,11850
799,3205,11849
800,3205,11853
801,3212,11852
802,3217,11851
803,3220,11858
804,3240,11854
805,3244,11855
806,3246,11866
807,3247,11857
808,3248,11856
809,3250,11859
810,3252,11862
811,3258,11861
812,3259,11863
813,3260,11860
814,3263,11864
815,3263,11865
816,3263,11870
817,3267,11867
818,3273,11868
819,3273,11869
820,3273,11871
821,3286,11872
822,3287,11876
823,3288,11873
824,3288,11880
825,3291,11875
826,3293,11874
827,3295,11877
828,3295,11879
829,3298,11878
830,3309,11881
831,3311,11882
832,3312,11869
833,3320,11883
834,3321,11884
835,3321,11885
836,3323,11888
837,3326,11886
838,3330,11887
839,3336,11889
840,3341,11890
841,3344,11891
842,3353,11892
843,3362,11894
844,3364,11893
845,3364,11900
846,3366,11895
847,3366,11897
848,3367,11898
849,3368,11896
850,3371,11901
851,3376,11899
852,3376,11904
853,3386,11902
854,3400,11903
855,3415,11906
856,3415,11907
857,3415,11913
858,3420,11905
859,3432,11908
860,3437,11909
861,3441,11910
862,3443,11914
863,3446,11911
864,3448,11916
865,3457,11912
866,3461,11915
867,3473,11917
868,3473,11918
869,3474,11927
870,3481,11923
871,3482,11919
872,3483,11920
873,3483,11921
874,3483,11926
875,3490,11922
876,3492,11924
877,3497,11925
878,3497,11928
879,3497,11933
880,3513,11929
881,3515,11930
882,3520,11931
883,3520,11934
884,3522,11932
885,3532,11935
886,3535,11936
887,3535,11940
888,3535,11941
889,3542,11937
890,3542,11938
891,3551,11939
892,3560,11942
893,3563,11943
894,3563,11944
895,3569,11945
896,3580,11946
897,3586,11948
898,3587,11947
899,3601,11949
900,3604,11950
901,3608,11953
902,3610,11954
903,3612,11951
904,3620,11952
905,3631,11955
906,3631,11956
907,3635,11961
908,3647,11958
909,3647,11959
910,3647,11960
911,3647,11963
912,3647,11964
913,3648,11957
914,3658,11962
915,3668,11965
916,3668,11966
917,3686,11967
918,3686,11972
919,3688,11968
920,3700,11969
921,3703,11970
922,3703,11975
923,3711,11971
924,3719,11973
925,3721,11974
926,3730,11976
927,3730,11980
928,3740,11977
929,3741,11978
930,3744,11979
931,3765,11985
932,3766,11981
933,3766,11982
934,3766,11983
935,3766,11984
936,3779,11986
937,3784,11987
938,3784,11989
939,3784,11993
940,3784,11994
941,3784,12001
942,3785,11988
943,3793,11990
944,3793,11995
945,3804,11991
946,3806,11992
947,3813,11996
948,3821,11999
949,3823,11997
950,3824,11998
951,3826,12000
952,3836,12002
953,3843,12004
954,3845,12003
955,3845,12006
956,3848,12005
957,3848,12007
958,3853,12009
959,3856,12008
960,3856,12010
961,3856,12012
962,3856,12015
963,3856,12019
964,3856,12023
965,3874,12013
966,3875,12016
967,3877,12011
968,3879,12014
969,3894,12017
970,3894,12018
971,3901,12020
972,3901,12025
973,3907,12024
974,3912,12021
975,3926,12022
976,3941,12027
977,3941,12030
978,3941,12031
979,3942,12026
980,3942,12028
981,3957,12029
982,3985,12032
983,3985,12033
984,3996,12034
985,3999,12036
986,3999,12037
987,3999,12043
988,4000,12035
989,4000,12038
990,4000,12043
991,4000,12046
992,4011,12040
993,4022,12039
994,4023,12041
995,4025,12042
996,4040,12044
997,4042,12045
998,4065,12048
999,4071,12047
1000,4071,12051
1001,4073,12049
1002,4075,12050
1003,4088,12052
1004,4092,12053
1005,4093,12054
1006,4097,12055
1007,4097,12056
1008,4097,12057
1009,4097,12059
1010,4108,12054
1011,4108,12062
1012,4111,12058
1013,4111,12060
1014,4111,12067
1015,4111,12070
1016,4123,12061
1017,4131,12066
1018,4133,12063
1019,4135,12064
1020,4138,12065
1021,4138,12068
1022,4138,12072
1023,4138,12074
1024,4152,12069
1025,4156,12071
1026,4156,12073
1027,4156,12076
1028,4166,12075
1029,4179,12083
1030,4186,12077
1031,4189,12078
1032,4190,12079
1033,4190,12081
1034,4197,12080
1035,4197,12085
1036,4197,12088
1037,4201,12084
1038,4205,12082
1039,4223,12086
1040,4224,12091
1041,4225,12087
1042,4225,12092
1043,4228,12090
1044,4231,12089
1045,4252,12093
1046,4256,12094
1047,4265,12095
1048,4272,12096
1049,4272,12097
1050,4284,12098
1051,4284,12101
1052,4288,12100
1053,4290,12099
1054,4294,12102
1055,4294,12106
1056,4294,12115
1057,4295,12103
1058,4295,12112
1059,4296,12104
1060,4296,12107
1061,4302,12105
1062,4315,12108
1063,4315,12110
1064,4321,12109
1065,4328,12111
1066,4339,12112
1067,4344,12113
1068,4344,12117
1069,4346,12103
1070,4351,12114
1071,4351,12116
1072,4374,12118
1073,4375,12119
1074,4376,12120
1075,4379,12121
1076,4381,12122
1077,4383,12123
1078,4383,12126
1079,4383,12129
1080,4390,12124
1081,4390,12125
1082,4396,12127
1083,4396,12128
1084,4396,12130
1085,4396,12131
1086,4396,12132
1087,4398,12128
1088,4398,12131
1089,4422,12133
1090,4424,12134
1091,4424,12140
1092,4432,12136
1093,4438,12137
1094,4440,12135
1095,4447,12144
1096,4448,12139
1097,4450,12138
1098,4454,12143
1099,4455,12141
1100,4455,12142
1101,4460,12145
1102,4466,12146
1103,4466,12148
1104,4469,12147
1105,4477,12149
1106,4478,12150
1107,4478,12151
1108,4502,12152
1109,4505,12153
1110,4523,12154
1111,4523,12161
1112,4530,12155
1113,4530,12157
1114,4532,12156
1115,4536,12158
1116,4539,12159
1117,4540,12162
1118,4541,12160
1119,4543,12163
1120,4549,12164
1121,4552,12165
1122,4556,12166
1123,4556,12167
1124,4574,12169
1125,4574,12170
1126,4576,12168
1127,4580,12171
1128,4580,12172
1129,4580,12173
1130,4591,12175
1131,4603,12176
1132,4610,12177
1133,4616,12178
1134,4616,12179
1135,4619,12180
1136,4623,12181
1137,4639,12182
1138,4639,12184
1139,4639,12185
1140,4640,12183
1141,4661,12185
1142,4667,12186
1143,4678,12187
1144,4678,12191
1145,4679,12189
1146,4683,12188
1147,4690,12190
1148,4698,12192
1149,4711,12193
1150,4718,12194
1151,4726,12195
1152,4733,12196
1153,4734,12197
1154,4748,12198
1155,4750,12199
1156,4751,12200
1157,4760,12201
1158,4761,12202
1159,4764,12203
1160,4767,12204
1161,4781,12205
1162,4784,12206
1163,4800,12207
1164,4800,12208
1165,4810,12210
1166,4814,12212
1167,4816,12210
1168,4817,12113
1169,4817,12209
1170,4817,12213
1171,4817,12214
1172,4820,12211
1173,4839,12215
1174,4851,12216
1175,4851,12220
1176,4862,12217
1177,4862,12226
1178,4864,12218
1179,4868,12219
1180,4872,12221
1181,4874,12222
1182,4874,12224
1183,4879,12223
1184,4882,12225
1185,4888,12227
1186,4888,12231
1187,4896,12228
1188,4900,12230
1189,4901,12229
1190,4908,12232
1191,4915,12233
1192,4920,12235
1193,4920,12237
1194,4920,12238
1195,4920,12242
1196,4921,12234
1197,4932,12236
1198,4938,12238
1199,4941,12241
1200,4942,12239
1201,4943,12240
1202,4954,12243
1203,4955,12249
1204,4963,12244
1205,4969,12245
1206,4973,12246
1207,4978,12247
1208,4978,12248
1209,4995,12250
1210,5002,12251
1211,5004,12252
1212,5005,12256
1213,5011,12253
1214,5020,12254
1215,5022,12255
1216,5026,12257
1217,5028,12262
1218,5036,12258
1219,5039,12259
1220,5039,12261
1221,5051,12260
1222,5054,12261
1223,5073,12265
1224,5075,12266
1225,5083,12263
1226,5099,12267
1227,5103,12269
1228,5107,12268
1229,5107,12270
1230,5107,12279
1231,5111,12271
1232,5112,12275
1233,5113,12276
1234,5113,12278
1235,5114,12272
1236,5118,12273
1237,5120,12274
1238,5127,12277
1239,5144,12280
1240,5151,12281
1241,5183,12286
1242,5186,12282
1243,5198,12288
1244,5211,12283
1245,5212,12284
1246,5220,12285
1247,5229,12287
1248,5230,12289
1249,5233,12290
1250,5233,12291
1251,5246,12292
1252,5246,12294
1253,5249,12293
1254,5275,12296
1255,5275,12298
1256,5296,12295
1257,5298,12297
1258,5315,12302
1259,5321,12300
1260,5326,12299
1261,5328,12301
1262,5331,12299
1263,5337,12308
1264,5342,12303
1265,5345,12304
1266,5347,12307
1267,5351,12309
1268,5354,12305
1269,5355,12307
1270,5360,12306
1271,5361,12309
1272,5366,12310
1273,5366,12312
1274,5366,12313
1275,5366,12317
1276,5375,12315
1277,5376,12311
1278,5385,12314
1279,5385,12316
1280,5387,12317
1281,5411,12319
1282,5415,12320
1283,5415,12323
1284,5422,12318
1285,5423,12319
1286,5446,12322
1287,5447,12321
1288,5447,12324
1289,5447,12325
1290,5447,12326
1291,5450,12328
1292,5456,12325
1293,5461,12332
1294,5462,12327
1295,5462,12331
1296,5472,12329
1297,5483,12330
1298,5492,12333
1299,5500,12326
1300,5518,12334
1301,5526,12335
1302,5534,12337
1303,5535,12336
1304,5537,12338
1305,5541,12339
1306,5541,12345
1307,5543,12340
1308,5544,12341
1309,5545,12342
1310,5545,12343
1311,5549,12344
1312,5549,12346
1313,5550,12347
1314,5559,12348
1315,5571,12349
1316,5582,12350
1317,5586,12351
1318,5596,12353
1319,5598,12352
1320,5612,12354
1321,5615,12355
1322,5618,12356
1323,5618,12359
1324,5627,12357
1325,5635,12358
1326,5637,12360
1327,5644,12361
1328,5644,12362
1329,5644,12366
1330,5652,12363
1331,5653,12365
1332,5658,12364
1333,5673,12367
1334,5675,12368
1335,5677,12369
1336,5678,12370
1337,5692,12371
1338,5708,12372
1339,5718,12373
1340,5718,12376
1341,5718,12380
1342,5721,12374
1343,5724,12375
1344,5736,12377
1345,5738,12378
1346,5738,12379
1347,5739,12385
1348,5745,12381
1349,5749,12382
1350,5750,12383
1351,5758,12384
1352,5772,12386
1353,5773,12379
1354,5783,12388
1355,5789,12387
1356,5807,12390
1357,5808,12389
1358,5818,12391
1359,5823,12393
1360,5830,12392
1361,5831,12394
1362,5845,12395
1363,5848,12396
1364,5850,12397
1365,5856,12398
1366,5865,12400
1367,5876,12399
1368,5880,12401
1369,5883,12402
1370,5885,12403
1371,5890,12404
1372,5894,12407
1373,5916,12405
1374,5919,12406
1375,5935,12409
1376,5939,12410
1377,5940,12411
1378,5944,12412
1379,5944,12414
1380,5948,12413
1381,5949,12417
1382,5956,12415
1383,5957,12416
1384,5961,12418
1385,5963,12419
1386,5970,12424
1387,5974,12420
1388,5976,12421
1389,5982,12423
1390,5983,12422
1391,5985,12425
1392,5987,12426
1393,5990,12428
1394,5991,12427
1395,6002,12429
1396,6004,12430
1397,6006,12432
1398,6010,12431
1399,6013,12433
1400,6015,12434
1401,6026,12435
1402,6026,12437
1403,6027,12436
1404,6050,12438
1405,6052,12439
1406,6052,12442
1407,6052,12445
1408,6054,12440
1409,6060,12441
1410,6063,12443
1411,6064,12444
1412,6069,12446
1413,6074,12447
1414,6075,12448
1415,6075,12451
1416,6078,12449
1417,6078,12450
1418,6084,12452
1419,6099,12453
1420,6100,12454
1421,6100,12456
1422,6107,12455
1423,6124,12457
1424,6136,12458
1425,6136,12460
1426,6140,12459
1427,6148,12461
1428,6154,12462
1429,6155,12463
1430,6155,12466
1431,6164,12464
1432,6167,12465
1433,6171,12467
1434,6172,12468
1435,6178,12469
1436,6178,12470
1437,6189,12471
1438,6205,12472
1439,6206,12473
1440,6207,12474
1441,6210,12475
1442,6223,12477
1443,6224,12476
1444,6227,12478
1445,6231,12479
1446,6242,12480
1447,6246,12483
1448,6247,12481
1449,6250,12482
1450,6258,12484
1451,6273,12485
1452,6281,12486
1453,6281,12487
1454,6289,12488
1455,6301,12489
1456,6302,12490
1457,6313,12491
1458,6317,12492
1459,6319,12493
1460,6320,12494
1461,6324,12495
1462,6327,12496
1463,6327,12497
1464,6345,12498
1465,6351,12502
1466,6353,12503
1467,6356,12500
1468,6359,12501
1469,6361,12505
1470,6370,12504
1471,6383,12506
1472,6391,12507
1473,6394,12509
1474,6396,12508
1475,6398,12510
1476,6398,12511
1477,6398,12518
1478,6399,12512
1479,6399,12514
1480,6403,12513
1481,6404,12515
1482,6407,12516
1483,6411,12517
1484,6418,12519
1485,6424,12521
1486,6427,12522
1487,6428,12520
1488,6436,12523
1489,6437,12524
1490,6439,12525
1491,6454,12526
1492,6464,12528
1493,6470,12527
1494,6483,12529
1495,6489,12530
1496,6492,12531
1497,6500,12532
1498,6505,12533
1499,6507,12535
1500,6508,12534
1501,6515,12536
1502,6518,12537
1503,6522,12538
1504,6523,12539
1505,6530,12540
1506,6532,12541
1507,6537,12542
1508,6544,12543
1509,6545,12545
1510,6550,12544
1511,6558,12546
1512,6560,12547
1513,6566,12548
1514,6576,12551
1515,6585,12549
1516,6591,12550
1517,6599,12552
1518,6613,12553
1519,6615,12554
1520,6617,12558
1521,6626,12555
1522,6629,12557
1523,6632,12556
1524,6657,12560
1525,6661,12561
1526,6662,12562
1527,6664,12563
1528,6666,12564
1529,6670,12565
1530,6670,12567
1531,6680,12566
1532,6681,12568
1533,6683,12569
1534,6684,12568
1535,6688,12570
1536,6692,12571
1537,6693,12570
1538,6693,12572
1539,6699,12573
1540,6699,12574
1541,6699,12575
1542,6699,12577
1543,6703,12576
1544,6711,12578
1545,6715,12580
1546,6716,12579
1547,6716,12582
1548,6716,12583
1549,6722,12581
1550,6728,12584
1551,6731,12585
1552,6731,12587
1553,6731,12588
1554,6732,12586
1555,6737,12589
1556,6745,12591
1557,6752,12590
1558,6754,12595
1559,6759,12592
1560,6764,12593
1561,6764,12594
1562,6769,12597
1563,6774,12596
1564,6789,12598
1565,6789,12601
1566,6794,12599
1567,6798,12600
1568,6803,12602
1569,6815,12603
1570,6820,12604
1571,6824,12605
1572,6829,12607
1573,6831,12606
1574,6838,12610
1575,6839,12608
1576,6842,12609
1577,6846,12611
1578,6863,12612
1579,6866,12613
1580,6868,12614
1581,6869,12616
1582,6870,12615
1583,6881,12617
1584,6882,12618
1585,6889,12619
1586,6892,12620
1587,6893,12622
1588,6895,12621
1589,6898,12624
1590,6901,12623
1591,6910,12625
1592,6910,12626
1593,6920,12628
1594,6922,12627
1595,6930,12629
1596,6937,12630
1597,6938,12631
1598,6939,12632
1599,6942,12633
1600,6946,12634
1601,6949,12635
1602,6950,12636
1603,6951,12637
1604,6952,12638
1605,6957,12640
1606,6958,12639
1607,6961,12641
1608,6961,12642
1609,6967,12643
1610,6972,12644
1611,6974,12646
1612,6975,12645
1613,6976,12649
1614,6981,12647
1615,6982,12648
1616,6983,12650
1617,6986,12651
1618,6986,12652
1619,6994,12653
1620,6999,12654
1621,7003,12655
1622,7010,12657
1623,7013,12656
1624,7015,12658
1625,7015,12660
1626,7022,12659
1627,7034,12661
1628,7045,12662
1629,7050,12663
1630,7058,12664
1631,7075,12665
1632,7078,12667
1633,7081,12666
1634,7090,12668
1635,7097,12669
1636,7100,12670
1637,7107,12671
1638,7110,12672
1639,7115,12673
1640,7117,12674
1641,7117,12679
1642,7120,12675
1643,7122,12677
1644,7123,12676
1645,7127,12678
1646,7131,12680
1647,7144,12681
1648,7147,12682
1649,7148,12683
1650,7164,12684
1651,7169,12685
1652,7171,12686
1653,7189,12687
1654,7190,12688
1655,7192,12689
1656,7202,12690
1657,7203,12691
1658,7211,12692
1659,7222,12693
1660,7227,12694
1661,7228,12695
1662,7229,12696
1663,7235,12697
1664,7236,12698
1665,7237,12699
1666,7240,12700
1667,7245,12702
1668,7246,12703
1669,7248,12704
1670,7251,12706
1671,7253,12707
1672,7254,12708
1673,7256,12709
1674,7260,12710
1675,7261,12711
1676,7262,12712
1677,7269,12713
1678,7274,12714
1679,7275,12715
1680,7287,12716
1681,7290,12717
1682,7298,12718
1683,7299,12719
1684,7300,12720
1685,7304,12721
1686,7305,12722
1687,7310,12723
1688,7312,12724
1689,7313,12725
1690,7322,12726
1691,7323,12727
1692,7324,12728
1693,7325,12729
1694,7326,12730
1695,7327,12731
1696,7331,12732
1697,7334,12733
1698,7348,12734
1699,7350,12736
1700,7351,12735
1701,7352,12737
1702,7353,12738
1703,7356,12739
1704,7357,12740
1705,7358,12741
